{"hash":"92c5c8628e4a553b583c99d224782c7fa8e0a041","data":{"tag":{"title":"frontend","belongsTo":{"totalCount":5,"pageInfo":{"totalPages":2,"currentPage":2},"edges":[{"node":{"title":"Vue vs React Comparison","timeToRead":1,"date":"March 27, 2019","path":"/vue-vs-react-comparison","summary":"Lorem ipsum dolor sit amet consectetur adipisicing elit. Hic rerum earum quos explicabo suscipit maxime iste qui nihil. Reiciendis asperiores minus necessitatibus","tags":[{"title":"frontend"},{"title":"vue"},{"title":"react"},{"title":"coding"}]}},{"node":{"title":"Design for Developers","timeToRead":1,"date":"March 7, 2019","path":"/design-for-developers","summary":"Lorem ipsum dolor sit amet consectetur adipisicing elit. Hic rerum earum quos explicabo suscipit maxime iste qui nihil. Reiciendis asperiores minus necessitatibus","tags":[{"title":"design"},{"title":"frontend"}]}}]}}},"context":{}}